these are the notes about the docs
ocean water values				attenuating light
"light intensity lite ver" → "simulating light curves" ↓
															the thing we are trying todo
														→ "math anaylysis"
													converting micro eintstein and watts
													"cho1"
												the surface area of coral
												"coral tomolgy"